<svg width="147" height="151" viewBox="0 0 147 151" fill="none" xmlns="http://www.w3.org/2000/svg">
<path id="Butterfly" fill-rule="evenodd" clip-rule="evenodd" d="M74.2861 79.4163C72.2698 119.003 39.8574 150.539 0 151V0C39.8574 0.460902 72.2698 31.9964 74.2861 71.5837C76.2757 32.5182 107.866 1.29376 147 0.0345384V150.966C107.866 149.707 76.2757 118.482 74.2861 79.4163Z" fill="#F2C94C"/>
</svg>
