[
  {
    "name": "Apple iPhone 14 128GB Purple",
    "price": 26299,
    "img": "https://mobystore.com.ua/wp-content/uploads/2022/09/Apple-iPhone-14-128GB-Purple-MPV03.jpg",
    "id": "123456",
    "color": "Purple",
    "isFavourite": false
  },
  {
    "name": "Apple iPhone 15 128GB Green",
    "price": 32199,
    "img": "https://mobystore.com.ua/wp-content/uploads/2023/09/Apple-iPhone-15-128GB-Green-MTP53.jpg",
    "id": "789012",
    "color": "Green",
    "isFavourite": false
  },
  {
    "name": "Apple iPhone 15 128GB Pink",
    "price": 32199,
    "img": "https://mobystore.com.ua/wp-content/uploads/2023/09/Apple-iPhone-15-128GB-Pink-MTP13.jpg",
    "id": "345678",
    "color": "Pink",
    "isFavourite": false
  },
  {
    "name": "Apple iPhone 14 Plus 128GB Starlight",
    "price": 33299,
    "img": "https://mobystore.com.ua/wp-content/uploads/2022/09/Apple-iPhone-14-Plus-128GB-Starlight-MQ4Y3.jpg",
    "id": "901234",
    "color": "Starlight",
    "isFavourite": false
  },
  {
    "name": "Apple iPhone 14 256GB Purple",
    "price": 35499,
    "img": "https://mobystore.com.ua/wp-content/uploads/2022/09/Apple-iPhone-14-128GB-Purple-MPV03.jpg",
    "id": "567890",
    "color": "Purple",
    "isFavourite": false
  },
  {
    "name": "Apple iPhone 14 256GB Yellow",
    "price": 35499,
    "img": "https://mobystore.com.ua/wp-content/uploads/2023/03/Apple-iPhone-14-128GB-Yellow.jpg",
    "id": "234567",
    "color": "Yellow",
    "isFavourite": false
  },
  {
    "name": "Apple iPhone 15 Plus 128GB Pink",
    "price": 37499,
    "img": "https://mobystore.com.ua/wp-content/uploads/2023/09/Apple-iPhone-15-Plus-128GB-Pink-MU103.jpg",
    "id": "890123",
    "color": "Pink",
    "isFavourite": false
  },
  {
    "name": "Apple iPhone 15 Plus 128GB Blue",
    "price": 37499,
    "img": "https://mobystore.com.ua/wp-content/uploads/2023/09/Apple-iPhone-15-Plus-128GB-Blue-MU163.jpg",
    "id": "456789",
    "color": "Blue",
    "isFavourite": false
  },
  {
    "name": "Apple iPhone 15 Pro 128GB Black Titanium",
    "price": 41899,
    "img": "https://mobystore.com.ua/wp-content/uploads/2023/09/Apple-iPhone-15-Pro-128GB-Black-Titanium-MTUV3.jpg",
    "id": "012345",
    "color": "Titanium",
    "isFavourite": false
  },
  {
    "name": "Apple iPhone 15 Pro 128GB Natural Titanium",
    "price": 42499,
    "img": "https://mobystore.com.ua/wp-content/uploads/2023/09/Apple-iPhone-15-Pro-128GB-Natural-Titanium-MTUX3.jpg",
    "id": "678901",
    "color": "Natural Titanium",
    "isFavourite": false
  }
]